{
  "$schema": "https://turbo.build/schema.json",
  "extends": ["//"],
  "pipeline": {
    "dev:next": {
      "cache": false
    },
    "turbo:dev:gateway": {
      "dependsOn": [
        "//#dev:compile",
        "on-board-event-client#watch:rspack",
        "on-board-event-server#turbo:start",
        "on-board-event-client#start",
        "dev:next"
      ],
      "cache": false
    },
    "buildGateway": {
      "cache": true,
      "persistent": false
    },
    "turbo:build:gateway": {
      "dependsOn": [
        "@flexiness/domain-content#start",
        "on-board-event-server#turbo:start",
        "on-board-event-client#start",
        "buildGateway"
      ],
      "outputs": ["build/**", "!build/cache/**"],
      "cache": true,
      "persistent": false
    },
    "start": {
      "cache": false
    }
  }
}
