{
  "trigger": true,
  "modules": [
    "add-to-group"
  ],
  "parentResource": "v3onBoard05c84909",
  "functionName": "v3onBoard05c84909PostConfirmation",
  "resourceName": "v3onBoard05c84909PostConfirmation",
  "parentStack": "auth",
  "triggerEnvs": "[]",
  "triggerDir": "/snapshot/amplify-cli/build/node_modules/@aws-amplify/amplify-category-auth/provider-utils/awscloudformation/triggers/PostConfirmation",
  "triggerTemplate": "PostConfirmation.json.ejs",
  "triggerEventPath": "PostConfirmation.event.json",
  "roleName": "v3onBoard05c84909PostConfirmation",
  "skipEdit": true
}