[
  {
    "category": "auth",
    "resourceName": "userPoolGroups",
    "service": "Cognito-UserPool-Groups"
  },
  {
    "category": "auth",
    "resourceName": "v3onBoard05c84909",
    "service": "Cognito"
  },
  {
    "category": "function",
    "resourceName": "v3onBoard05c84909CustomMessage",
    "service": "Lambda"
  },
  {
    "category": "function",
    "resourceName": "v3onBoard05c84909PostConfirmation",
    "service": "Lambda"
  },
  {
    "category": "api",
    "resourceName": "v3onBoardEvent",
    "service": "AppSync"
  }
]