{
  "name": "@flexiness/domain-tailwind",
  "prefix": "@flexiness",
  "sourceRoot": "packages/flex/domain-tailwind/src",
  "projectType": "library",
  "targets": {
    "build:lib": {
      "executor": "nx:run-commands",
      "inputs": [
        "{projectRoot}/package.json",
        "{projectRoot}/tsconfig.build.json",
        "{projectRoot}/tailwind.config.cjs",
        "{projectRoot}/postcss.config.cjs",
        "{projectRoot}/src/styles/**/*.css"
      ],
      "outputs": [
        "{projectRoot}/dist"
      ],
      "options": {
        "command": "pnpm --filter @flexiness/domain-tailwind 'build:lib'"
      }
    }
  },
  "implicitDependencies": [],
  "tags": ["scope:flexiness-staging"]
}
